Practical Session 2: Analysis of Cohort Studies I
…
Open the data up in R and have a look. The year and the age refer to the start of each age/calendar period.

# Define file path to practical directory (EDIT THIS)
dir <- "/Users/robertfletcher/Documents/phd/training"

# Define practical directory (DO NOT EDIT THIS)
prac <- "advanced_biostats/02_cohort_studies_I"

# Read data
bc <- readr::read_csv(glue::glue("{dir}/{prac}/data/cohort_01_bc_rates.csv"))
at <- readr::read_csv(glue::glue("{dir}/{prac}/data/cohort_01_at_relatives.csv"))

# Inspect data
print(bc, n = 5)
#> # A tibble: 108 × 3
#>   yearband ageband ratesper100000
#>      <dbl>   <dbl>          <dbl>
#> 1     1970       0           0   
#> 2     1975       0           0   
#> 3     1980       0           0.03
#> 4     1985       0           0.05
#> 5     1990       0           0.06
#> # … with 103 more rows
#> # ℹ Use `print(n = ...)` to see more rows

print(at, n = 5)
#> # A tibble: 396 × 5
#>   id        dob dexit brcancer relative   
#>   <chr>   <dbl> <dbl>    <dbl> <chr>      
#> 1 A003102  1896  1988        0 Grandmother
#> 2 A004104  1915  2002        0 Grandmother
#> 3 A006104  1945  2002        0 Grandmother
#> 4 A007102  1923  1996        0 Grandmother
#> 5 A007104  1932  2002        0 Grandmother
#> # … with 391 more rows
#> # ℹ Use `print(n = ...)` to see more rows
…
Task D: Merge with the population rates and calculate the standardised mortality ratio (SMR)

We will estimate the standardized mortality ratio in R. The standardized mortality ratio (SMR) is the ratio of the observed number of deaths in the study population to the number that would be expected if the study population experienced the same mortality as the standard population. When studying disease incidence (rather than deaths) the corresponding quantity is called a standardized incidence ratio (SIR).

Our example illustrates the approach to estimating SMRs using R. Specifically, we will estimate SMRs for the AT relatives data using the general population breast cancer rates stratified by age and calendar to estimate the expected number of cancers.

In order to merge the data, the variable names must be named the same. We will change them in the BC rates dataset:

bc2 <- bc |>
  dplyr::rename(year = yearband, age = ageband)

We can now use the function dplyr::left_join() to combine the data:

dplyr::left_join(at_aggr, bc2, by = c("year", "age"))
#> # A tibble: 102 × 7
#>      age  year  pyrs at.risk from0to0 from0to1 ratesper100000
#>    <dbl> <dbl> <dbl>   <dbl>    <dbl>    <dbl>          <dbl>
#>  1     0  1970    59      17        0        0           0   
#>  2     0  1975    21       5        0        0           0   
#>  3     0  1980     8       3        0        0           0.03
#>  4     5  1970   105      24        0        0           0   
#>  5     5  1975    59      17        0        0           0   
#>  6     5  1980    21       5        0        0           0.02
#>  7     5  1985     8       3        0        0           0.01
#>  8    10  1970   140      34        0        0           0.05
#>  9    10  1975   105      24        0        0           0.06
#> 10    10  1980    59      17        0        0           0   
#> # … with 92 more rows
#> # ℹ Use `print(n = ...)` to see more rows
…
